[
{
  "model": "gearo.faqcategory",
  "pk": 1,
  "fields": {
    "category": "Beim Inserieren von Equipment",
    "parent": 2,
    "create_date": "2016-05-05T12:34:51Z"
  }
},
{
  "model": "gearo.faqcategory",
  "pk": 2,
  "fields": {
    "category": "Vor dem Treffen",
    "parent": 2,
    "create_date": "2016-05-05T13:38:43Z"
  }
},
{
  "model": "gearo.faqcategory",
  "pk": 3,
  "fields": {
    "category": "Am Treffpunkt",
    "parent": 2,
    "create_date": "2016-05-05T13:40:47Z"
  }
},
{
  "model": "gearo.faqcategory",
  "pk": 4,
  "fields": {
    "category": "Bei der R\u00fcckgabe",
    "parent": 2,
    "create_date": "2016-05-05T13:41:08Z"
  }
},
{
  "model": "gearo.faqcategory",
  "pk": 5,
  "fields": {
    "category": "Deine Buchungen",
    "parent": 2,
    "create_date": "2016-05-05T13:41:25Z"
  }
},
{
  "model": "gearo.faqcategory",
  "pk": 6,
  "fields": {
    "category": "Steuerliches",
    "parent": 2,
    "create_date": "2016-05-05T13:41:46Z"
  }
},
{
  "model": "gearo.faqcategory",
  "pk": 7,
  "fields": {
    "category": "Was gibt es sonst noch?",
    "parent": 2,
    "create_date": "2016-05-05T13:42:01Z"
  }
},
{
  "model": "gearo.faqcategory",
  "pk": 8,
  "fields": {
    "category": "Equipment suchen & finden",
    "parent": 1,
    "create_date": "2016-05-05T13:42:22Z"
  }
},
{
  "model": "gearo.faqcategory",
  "pk": 9,
  "fields": {
    "category": "Das Treffen",
    "parent": 1,
    "create_date": "2016-05-05T13:42:38Z"
  }
},
{
  "model": "gearo.faqcategory",
  "pk": 10,
  "fields": {
    "category": "W\u00e4hrend der Anmietung",
    "parent": 1,
    "create_date": "2016-05-05T13:42:50Z"
  }
},
{
  "model": "gearo.faqcategory",
  "pk": 11,
  "fields": {
    "category": "Nach der Anmietung & R\u00fcckgabe",
    "parent": 1,
    "create_date": "2016-05-05T13:43:01Z"
  }
},
{
  "model": "gearo.faqcategory",
  "pk": 12,
  "fields": {
    "category": "Was gibt es sonst noch?",
    "parent": 1,
    "create_date": "2016-05-05T13:43:11Z"
  }
}
]